<svg width="24" height="25" viewBox="0 0 24 25" fill="none" xmlns="http://www.w3.org/2000/svg">
<path d="M15.1204 5.6296H17.0004V2.4496C16.0901 2.35495 15.1755 2.30822 14.2604 2.3096C11.5404 2.3096 9.68035 3.9696 9.68035 7.0096V9.6296H6.61035V13.1896H9.68035V22.3096H13.3604V13.1896H16.4204L16.8804 9.6296H13.3604V7.3596C13.3604 6.3096 13.6404 5.6296 15.1204 5.6296Z" fill="white"/>
</svg>
